…
path_df
```

    ## # A tibble: 160 x 4
    ##    arm    week observation subject_id
    ##    <chr> <dbl>       <dbl> <chr>     
    ##  1 con       1        0.2  con_1     
    ##  2 con       2       -1.31 con_1     
    ##  3 con       3        0.66 con_1     
    ##  4 con       4        1.96 con_1     
    ##  5 con       5        0.23 con_1     
    ##  6 con       6        1.09 con_1     
    ##  7 con       7        0.05 con_1     
    ##  8 con       8        1.94 con_1     
    ##  9 con       1        1.13 con_2     
    ## 10 con       2       -0.88 con_2     
    ## # … with 150 more rows
…
Setting mu equal to 0

``` r
sim_results = 
  rerun(5000, t_test(mu = 0)) %>% 
  bind_rows()

sim_results %>% 
  select(estimate, p.value)
```

    ## # A tibble: 5,000 x 2
    ##    estimate p.value
    ##       <dbl>   <dbl>
    ##  1    0.207   0.837
    ##  2   -0.720   0.513
    ##  3    0.579   0.520
    ##  4    0.322   0.657
    ##  5    0.223   0.795
    ##  6   -0.759   0.423
    ##  7    1.05    0.316
    ##  8    0.199   0.838
    ##  9    1.70    0.137
    ## 10   -1.01    0.269
    ## # … with 4,990 more rows
…
``` r
rep_sim_results = 
  tibble(mean = c(0, 1, 2, 3, 4, 5, 6)) %>% 
  mutate(
    output_lists = map(.x = mean, ~rerun(5000, t_test(mu = .x))),
    estimate_dfs = map(output_lists, bind_rows)) %>% 
  select(-output_lists) %>% 
  unnest(estimate_dfs)

rep_sim_results %>% 
  select(mean, estimate, p.value)
```

    ## # A tibble: 35,000 x 3
    ##     mean estimate p.value
    ##    <dbl>    <dbl>   <dbl>
    ##  1     0   -1.74   0.0588
    ##  2     0   -0.581  0.500 
    ##  3     0   -0.548  0.579 
    ##  4     0   -1.24   0.136 
    ##  5     0   -1.03   0.189 
    ##  6     0    0.984  0.396 
    ##  7     0   -1.02   0.219 
    ##  8     0   -0.949  0.368 
    ##  9     0    1.14   0.232 
    ## 10     0    1.85   0.0383
    ## # … with 34,990 more rows
…
